{
    "name": "Eris",
    "alias": "eris",
    "description": "",
    "keywords": [],
    "active": 1,
    "order": 0,
    "providers": [
        "Modules\\Eris\\Providers\\ErisServiceProvider"
    ],
    "aliases": {},
    "files": [],
    "requires": []
}
