{
    "name": "AntDesign",
    "alias": "antdesign",
    "description": "",
    "keywords": [],
    "active": 1,
    "order": 0,
    "providers": [
        "Modules\\AntDesign\\Providers\\AntDesignServiceProvider"
    ],
    "aliases": {},
    "files": [],
    "requires": []
}
